{"results":[{"status":"upcoming","visibility":"public","maybe_rsvp_count":0,"venue":{"id":6402742,"lon":174.758987,"repinned":false,"name":"Napier Computing Systems","address_1":"156 Victoria St West","lat":-36.848087,"country":"nz","city":"Auckland"},"id":"dpwdgdyrcbgc","utc_offset":46800000,"duration":9000000,"time":1359005400000,"waitlist_count":0,"updated":1347959966000,"created":1344421156000,"yes_rsvp_count":1,"event_url":"http:\/\/www.meetup.com\/aucklandrails\/events\/dpwdgdyrcbgc\/","description":"<p>By popular demand we have introduced a fortnightly hackfest!<\/p>\n<p>This is an opportunity for developers at all levels to benefit from the knowledge of other group members. Come along, bring your laptop, and work on your favorite project. <strong>When you hit a bump, get an answer!<\/strong><\/p>\n<p>Come along for a social night of coding, and get to know your local rails community!<\/p>\n<p> <\/p>\n<p> <\/p>","how_to_find_us":"Find us at 156 Victoria St West","name":"Thursday Hackfest!","headcount":0,"group":{"id":432151,"group_lat":-36.849998474121094,"name":"Ruby Nights: The Auckland Ruby on Rails Group","group_lon":174.75999450683594,"join_mode":"open","urlname":"aucklandrails","who":"Rails Developers"}},{"status":"upcoming","visibility":"public","maybe_rsvp_count":0,"venue":{"id":6402742,"lon":174.758987,"repinned":false,"name":"Napier Computing Systems","address_1":"156 Victoria St West","lat":-36.848087,"country":"nz","city":"Auckland"},"id":"djqxcdyrdbrb","utc_offset":46800000,"time":1360733400000,"waitlist_count":0,"updated":1342001038000,"created":1342001038000,"yes_rsvp_count":3,"event_url":"http:\/\/www.meetup.com\/aucklandrails\/events\/97829662\/","description":"<br \/>","how_to_find_us":"Google the address :)","name":"Ruby Nights: The Auckland RoR Group Meetup","headcount":0,"group":{"id":432151,"group_lat":-36.849998474121094,"name":"Ruby Nights: The Auckland Ruby on Rails Group","group_lon":174.75999450683594,"join_mode":"open","urlname":"aucklandrails","who":"Rails Developers"}},{"status":"upcoming","visibility":"public","maybe_rsvp_count":0,"venue":{"id":6402742,"lon":174.758987,"repinned":false,"name":"Napier Computing Systems","address_1":"156 Victoria St West","lat":-36.848087,"country":"nz","city":"Auckland"},"id":"dpwdgdyrdblc","utc_offset":46800000,"duration":9000000,"time":1362029400000,"waitlist_count":0,"updated":1347959966000,"created":1344421156000,"yes_rsvp_count":1,"event_url":"http:\/\/www.meetup.com\/aucklandrails\/events\/dpwdgdyrdblc\/","description":"<p>By popular demand we have introduced a fortnightly hackfest!<\/p>\n<p>This is an opportunity for developers at all levels to benefit from the knowledge of other group members. Come along, bring your laptop, and work on your favorite project. <strong>When you hit a bump, get an answer!<\/strong><\/p>\n<p>Come along for a social night of coding, and get to know your local rails community!<\/p>\n<p> <\/p>\n<p> <\/p>","how_to_find_us":"Find us at 156 Victoria St West","name":"Thursday Hackfest!","headcount":0,"group":{"id":432151,"group_lat":-36.849998474121094,"name":"Ruby Nights: The Auckland Ruby on Rails Group","group_lon":174.75999450683594,"join_mode":"open","urlname":"aucklandrails","who":"Rails Developers"}},{"status":"upcoming","visibility":"public","maybe_rsvp_count":0,"venue":{"id":6402742,"lon":174.758987,"repinned":false,"name":"Napier Computing Systems","address_1":"156 Victoria St West","lat":-36.848087,"country":"nz","city":"Auckland"},"id":"djqxcdyrfbrb","utc_offset":46800000,"time":1363152600000,"waitlist_count":0,"updated":1342001038000,"created":1342001038000,"yes_rsvp_count":1,"event_url":"http:\/\/www.meetup.com\/aucklandrails\/events\/djqxcdyrfbrb\/","description":"<br \/>","how_to_find_us":"Google the address :)","name":"Ruby Nights: The Auckland RoR Group Meetup","headcount":0,"group":{"id":432151,"group_lat":-36.849998474121094,"name":"Ruby Nights: The Auckland Ruby on Rails Group","group_lon":174.75999450683594,"join_mode":"open","urlname":"aucklandrails","who":"Rails Developers"}},{"status":"upcoming","visibility":"public","maybe_rsvp_count":0,"venue":{"id":6402742,"lon":174.758987,"repinned":false,"name":"Napier Computing Systems","address_1":"156 Victoria St West","lat":-36.848087,"country":"nz","city":"Auckland"},"id":"dpwdgdyrfblc","utc_offset":46800000,"duration":9000000,"time":1364448600000,"waitlist_count":0,"updated":1347959966000,"created":1344421156000,"yes_rsvp_count":1,"event_url":"http:\/\/www.meetup.com\/aucklandrails\/events\/dpwdgdyrfblc\/","description":"<p>By popular demand we have introduced a fortnightly hackfest!<\/p>\n<p>This is an opportunity for developers at all levels to benefit from the knowledge of other group members. Come along, bring your laptop, and work on your favorite project. <strong>When you hit a bump, get an answer!<\/strong><\/p>\n<p>Come along for a social night of coding, and get to know your local rails community!<\/p>\n<p> <\/p>\n<p> <\/p>","how_to_find_us":"Find us at 156 Victoria St West","name":"Thursday Hackfest!","headcount":0,"group":{"id":432151,"group_lat":-36.849998474121094,"name":"Ruby Nights: The Auckland Ruby on Rails Group","group_lon":174.75999450683594,"join_mode":"open","urlname":"aucklandrails","who":"Rails Developers"}},{"status":"upcoming","visibility":"public","maybe_rsvp_count":0,"venue":{"id":6402742,"lon":174.758987,"repinned":false,"name":"Napier Computing Systems","address_1":"156 Victoria St West","lat":-36.848087,"country":"nz","city":"Auckland"},"id":"djqxcdyrgbnb","utc_offset":43200000,"time":1365575400000,"waitlist_count":0,"updated":1342001038000,"created":1342001038000,"yes_rsvp_count":1,"event_url":"http:\/\/www.meetup.com\/aucklandrails\/events\/djqxcdyrgbnb\/","description":"<br \/>","how_to_find_us":"Google the address :)","name":"Ruby Nights: The Auckland RoR Group Meetup","headcount":0,"group":{"id":432151,"group_lat":-36.849998474121094,"name":"Ruby Nights: The Auckland Ruby on Rails Group","group_lon":174.75999450683594,"join_mode":"open","urlname":"aucklandrails","who":"Rails Developers"}},{"status":"upcoming","visibility":"public","maybe_rsvp_count":0,"venue":{"id":6402742,"lon":174.758987,"repinned":false,"name":"Napier Computing Systems","address_1":"156 Victoria St West","lat":-36.848087,"country":"nz","city":"Auckland"},"id":"dpwdgdyrgbhc","utc_offset":43200000,"duration":9000000,"time":1366871400000,"waitlist_count":0,"updated":1347959966000,"created":1344421156000,"yes_rsvp_count":1,"event_url":"http:\/\/www.meetup.com\/aucklandrails\/events\/dpwdgdyrgbhc\/","description":"<p>By popular demand we have introduced a fortnightly hackfest!<\/p>\n<p>This is an opportunity for developers at all levels to benefit from the knowledge of other group members. Come along, bring your laptop, and work on your favorite project. <strong>When you hit a bump, get an answer!<\/strong><\/p>\n<p>Come along for a social night of coding, and get to know your local rails community!<\/p>\n<p> <\/p>\n<p> <\/p>","how_to_find_us":"Find us at 156 Victoria St West","name":"Thursday Hackfest!","headcount":0,"group":{"id":432151,"group_lat":-36.849998474121094,"name":"Ruby Nights: The Auckland Ruby on Rails Group","group_lon":174.75999450683594,"join_mode":"open","urlname":"aucklandrails","who":"Rails Developers"}},{"status":"upcoming","visibility":"public","maybe_rsvp_count":0,"venue":{"id":6402742,"lon":174.758987,"repinned":false,"name":"Napier Computing Systems","address_1":"156 Victoria St West","lat":-36.848087,"country":"nz","city":"Auckland"},"id":"djqxcdyrhblb","utc_offset":43200000,"time":1367994600000,"waitlist_count":0,"updated":1342001038000,"created":1342001038000,"yes_rsvp_count":1,"event_url":"http:\/\/www.meetup.com\/aucklandrails\/events\/djqxcdyrhblb\/","description":"<br \/>","how_to_find_us":"Google the address :)","name":"Ruby Nights: The Auckland RoR Group Meetup","headcount":0,"group":{"id":432151,"group_lat":-36.849998474121094,"name":"Ruby Nights: The Auckland Ruby on Rails Group","group_lon":174.75999450683594,"join_mode":"open","urlname":"aucklandrails","who":"Rails Developers"}},{"status":"upcoming","visibility":"public","maybe_rsvp_count":0,"venue":{"id":6402742,"lon":174.758987,"repinned":false,"name":"Napier Computing Systems","address_1":"156 Victoria St West","lat":-36.848087,"country":"nz","city":"Auckland"},"id":"dpwdgdyrhbfc","utc_offset":43200000,"duration":9000000,"time":1369290600000,"waitlist_count":0,"updated":1347959966000,"created":1344421156000,"yes_rsvp_count":1,"event_url":"http:\/\/www.meetup.com\/aucklandrails\/events\/dpwdgdyrhbfc\/","description":"<p>By popular demand we have introduced a fortnightly hackfest!<\/p>\n<p>This is an opportunity for developers at all levels to benefit from the knowledge of other group members. Come along, bring your laptop, and work on your favorite project. <strong>When you hit a bump, get an answer!<\/strong><\/p>\n<p>Come along for a social night of coding, and get to know your local rails community!<\/p>\n<p> <\/p>\n<p> <\/p>","how_to_find_us":"Find us at 156 Victoria St West","name":"Thursday Hackfest!","headcount":0,"group":{"id":432151,"group_lat":-36.849998474121094,"name":"Ruby Nights: The Auckland Ruby on Rails Group","group_lon":174.75999450683594,"join_mode":"open","urlname":"aucklandrails","who":"Rails Developers"}},{"status":"upcoming","visibility":"public","maybe_rsvp_count":0,"venue":{"id":6402742,"lon":174.758987,"repinned":false,"name":"Napier Computing Systems","address_1":"156 Victoria St West","lat":-36.848087,"country":"nz","city":"Auckland"},"id":"djqxcdyrjbqb","utc_offset":43200000,"time":1371018600000,"waitlist_count":0,"updated":1342001038000,"created":1342001038000,"yes_rsvp_count":1,"event_url":"http:\/\/www.meetup.com\/aucklandrails\/events\/djqxcdyrjbqb\/","description":"<br \/>","how_to_find_us":"Google the address :)","name":"Ruby Nights: The Auckland RoR Group Meetup","headcount":0,"group":{"id":432151,"group_lat":-36.849998474121094,"name":"Ruby Nights: The Auckland Ruby on Rails Group","group_lon":174.75999450683594,"join_mode":"open","urlname":"aucklandrails","who":"Rails Developers"}},{"status":"upcoming","visibility":"public","maybe_rsvp_count":0,"venue":{"id":6402742,"lon":174.758987,"repinned":false,"name":"Napier Computing Systems","address_1":"156 Victoria St West","lat":-36.848087,"country":"nz","city":"Auckland"},"id":"dpwdgdyrjbkc","utc_offset":43200000,"duration":9000000,"time":1372314600000,"waitlist_count":0,"updated":1347959966000,"created":1344421156000,"yes_rsvp_count":1,"event_url":"http:\/\/www.meetup.com\/aucklandrails\/events\/dpwdgdyrjbkc\/","description":"<p>By popular demand we have introduced a fortnightly hackfest!<\/p>\n<p>This is an opportunity for developers at all levels to benefit from the knowledge of other group members. Come along, bring your laptop, and work on your favorite project. <strong>When you hit a bump, get an answer!<\/strong><\/p>\n<p>Come along for a social night of coding, and get to know your local rails community!<\/p>\n<p> <\/p>\n<p> <\/p>","how_to_find_us":"Find us at 156 Victoria St West","name":"Thursday Hackfest!","headcount":0,"group":{"id":432151,"group_lat":-36.849998474121094,"name":"Ruby Nights: The Auckland Ruby on Rails Group","group_lon":174.75999450683594,"join_mode":"open","urlname":"aucklandrails","who":"Rails Developers"}},{"status":"upcoming","visibility":"public","maybe_rsvp_count":0,"venue":{"id":6402742,"lon":174.758987,"repinned":false,"name":"Napier Computing Systems","address_1":"156 Victoria St West","lat":-36.848087,"country":"nz","city":"Auckland"},"id":"djqxcdyrkbnb","utc_offset":43200000,"time":1373437800000,"waitlist_count":0,"updated":1342001038000,"created":1342001038000,"yes_rsvp_count":1,"event_url":"http:\/\/www.meetup.com\/aucklandrails\/events\/djqxcdyrkbnb\/","description":"<br \/>","how_to_find_us":"Google the address :)","name":"Ruby Nights: The Auckland RoR Group Meetup","headcount":0,"group":{"id":432151,"group_lat":-36.849998474121094,"name":"Ruby Nights: The Auckland Ruby on Rails Group","group_lon":174.75999450683594,"join_mode":"open","urlname":"aucklandrails","who":"Rails Developers"}},{"status":"upcoming","visibility":"public","maybe_rsvp_count":0,"venue":{"id":6402742,"lon":174.758987,"repinned":false,"name":"Napier Computing Systems","address_1":"156 Victoria St West","lat":-36.848087,"country":"nz","city":"Auckland"},"id":"dpwdgdyrkbhc","utc_offset":43200000,"duration":9000000,"time":1374733800000,"waitlist_count":0,"updated":1347959966000,"created":1344421156000,"yes_rsvp_count":1,"event_url":"http:\/\/www.meetup.com\/aucklandrails\/events\/dpwdgdyrkbhc\/","description":"<p>By popular demand we have introduced a fortnightly hackfest!<\/p>\n<p>This is an opportunity for developers at all levels to benefit from the knowledge of other group members. Come along, bring your laptop, and work on your favorite project. <strong>When you hit a bump, get an answer!<\/strong><\/p>\n<p>Come along for a social night of coding, and get to know your local rails community!<\/p>\n<p> <\/p>\n<p> <\/p>","how_to_find_us":"Find us at 156 Victoria St West","name":"Thursday Hackfest!","headcount":0,"group":{"id":432151,"group_lat":-36.849998474121094,"name":"Ruby Nights: The Auckland Ruby on Rails Group","group_lon":174.75999450683594,"join_mode":"open","urlname":"aucklandrails","who":"Rails Developers"}},{"status":"upcoming","visibility":"public","maybe_rsvp_count":0,"venue":{"id":6402742,"lon":174.758987,"repinned":false,"name":"Napier Computing Systems","address_1":"156 Victoria St West","lat":-36.848087,"country":"nz","city":"Auckland"},"id":"djqxcdyrlbsb","utc_offset":43200000,"time":1376461800000,"waitlist_count":0,"updated":1342001038000,"created":1342001038000,"yes_rsvp_count":1,"event_url":"http:\/\/www.meetup.com\/aucklandrails\/events\/djqxcdyrlbsb\/","description":"<br \/>","how_to_find_us":"Google the address :)","name":"Ruby Nights: The Auckland RoR Group Meetup","headcount":0,"group":{"id":432151,"group_lat":-36.849998474121094,"name":"Ruby Nights: The Auckland Ruby on Rails Group","group_lon":174.75999450683594,"join_mode":"open","urlname":"aucklandrails","who":"Rails Developers"}},{"status":"upcoming","visibility":"public","maybe_rsvp_count":0,"venue":{"id":6402742,"lon":174.758987,"repinned":false,"name":"Napier Computing Systems","address_1":"156 Victoria St West","lat":-36.848087,"country":"nz","city":"Auckland"},"id":"dpwdgdyrlbdc","utc_offset":43200000,"duration":9000000,"time":1377153000000,"waitlist_count":0,"updated":1347959966000,"created":1344421156000,"yes_rsvp_count":1,"event_url":"http:\/\/www.meetup.com\/aucklandrails\/events\/dpwdgdyrlbdc\/","description":"<p>By popular demand we have introduced a fortnightly hackfest!<\/p>\n<p>This is an opportunity for developers at all levels to benefit from the knowledge of other group members. Come along, bring your laptop, and work on your favorite project. <strong>When you hit a bump, get an answer!<\/strong><\/p>\n<p>Come along for a social night of coding, and get to know your local rails community!<\/p>\n<p> <\/p>\n<p> <\/p>","how_to_find_us":"Find us at 156 Victoria St West","name":"Thursday Hackfest!","headcount":0,"group":{"id":432151,"group_lat":-36.849998474121094,"name":"Ruby Nights: The Auckland Ruby on Rails Group","group_lon":174.75999450683594,"join_mode":"open","urlname":"aucklandrails","who":"Rails Developers"}},{"status":"upcoming","visibility":"public","maybe_rsvp_count":0,"venue":{"id":6402742,"lon":174.758987,"repinned":false,"name":"Napier Computing Systems","address_1":"156 Victoria St West","lat":-36.848087,"country":"nz","city":"Auckland"},"id":"djqxcdyrmbpb","utc_offset":43200000,"time":1378881000000,"waitlist_count":0,"updated":1342001038000,"created":1342001038000,"yes_rsvp_count":1,"event_url":"http:\/\/www.meetup.com\/aucklandrails\/events\/djqxcdyrmbpb\/","description":"<br \/>","how_to_find_us":"Google the address :)","name":"Ruby Nights: The Auckland RoR Group Meetup","headcount":0,"group":{"id":432151,"group_lat":-36.849998474121094,"name":"Ruby Nights: The Auckland Ruby on Rails Group","group_lon":174.75999450683594,"join_mode":"open","urlname":"aucklandrails","who":"Rails Developers"}},{"status":"upcoming","visibility":"public","maybe_rsvp_count":0,"venue":{"id":6402742,"lon":174.758987,"repinned":false,"name":"Napier Computing Systems","address_1":"156 Victoria St West","lat":-36.848087,"country":"nz","city":"Auckland"},"id":"dpwdgdyrmbjc","utc_offset":43200000,"duration":9000000,"time":1380177000000,"waitlist_count":0,"updated":1347959966000,"created":1344421156000,"yes_rsvp_count":1,"event_url":"http:\/\/www.meetup.com\/aucklandrails\/events\/dpwdgdyrmbjc\/","description":"<p>By popular demand we have introduced a fortnightly hackfest!<\/p>\n<p>This is an opportunity for developers at all levels to benefit from the knowledge of other group members. Come along, bring your laptop, and work on your favorite project. <strong>When you hit a bump, get an answer!<\/strong><\/p>\n<p>Come along for a social night of coding, and get to know your local rails community!<\/p>\n<p> <\/p>\n<p> <\/p>","how_to_find_us":"Find us at 156 Victoria St West","name":"Thursday Hackfest!","headcount":0,"group":{"id":432151,"group_lat":-36.849998474121094,"name":"Ruby Nights: The Auckland Ruby on Rails Group","group_lon":174.75999450683594,"join_mode":"open","urlname":"aucklandrails","who":"Rails Developers"}},{"status":"upcoming","visibility":"public","maybe_rsvp_count":0,"venue":{"id":6402742,"lon":174.758987,"repinned":false,"name":"Napier Computing Systems","address_1":"156 Victoria St West","lat":-36.848087,"country":"nz","city":"Auckland"},"id":"djqxcdyrnbmb","utc_offset":46800000,"time":1381296600000,"waitlist_count":0,"updated":1342001038000,"created":1342001038000,"yes_rsvp_count":1,"event_url":"http:\/\/www.meetup.com\/aucklandrails\/events\/djqxcdyrnbmb\/","description":"<br \/>","how_to_find_us":"Google the address :)","name":"Ruby Nights: The Auckland RoR Group Meetup","headcount":0,"group":{"id":432151,"group_lat":-36.849998474121094,"name":"Ruby Nights: The Auckland Ruby on Rails Group","group_lon":174.75999450683594,"join_mode":"open","urlname":"aucklandrails","who":"Rails Developers"}},{"status":"upcoming","visibility":"public","maybe_rsvp_count":0,"venue":{"id":6402742,"lon":174.758987,"repinned":false,"name":"Napier Computing Systems","address_1":"156 Victoria St West","lat":-36.848087,"country":"nz","city":"Auckland"},"id":"dpwdgdyrnbgc","utc_offset":46800000,"duration":9000000,"time":1382592600000,"waitlist_count":0,"updated":1347959966000,"created":1344421156000,"yes_rsvp_count":1,"event_url":"http:\/\/www.meetup.com\/aucklandrails\/events\/dpwdgdyrnbgc\/","description":"<p>By popular demand we have introduced a fortnightly hackfest!<\/p>\n<p>This is an opportunity for developers at all levels to benefit from the knowledge of other group members. Come along, bring your laptop, and work on your favorite project. <strong>When you hit a bump, get an answer!<\/strong><\/p>\n<p>Come along for a social night of coding, and get to know your local rails community!<\/p>\n<p> <\/p>\n<p> <\/p>","how_to_find_us":"Find us at 156 Victoria St West","name":"Thursday Hackfest!","headcount":0,"group":{"id":432151,"group_lat":-36.849998474121094,"name":"Ruby Nights: The Auckland Ruby on Rails Group","group_lon":174.75999450683594,"join_mode":"open","urlname":"aucklandrails","who":"Rails Developers"}},{"status":"upcoming","visibility":"public","maybe_rsvp_count":0,"venue":{"id":6402742,"lon":174.758987,"repinned":false,"name":"Napier Computing Systems","address_1":"156 Victoria St West","lat":-36.848087,"country":"nz","city":"Auckland"},"id":"djqxcdyrpbrb","utc_offset":46800000,"time":1384320600000,"waitlist_count":0,"updated":1342001038000,"created":1342001038000,"yes_rsvp_count":1,"event_url":"http:\/\/www.meetup.com\/aucklandrails\/events\/djqxcdyrpbrb\/","description":"<br \/>","how_to_find_us":"Google the address :)","name":"Ruby Nights: The Auckland RoR Group Meetup","headcount":0,"group":{"id":432151,"group_lat":-36.849998474121094,"name":"Ruby Nights: The Auckland Ruby on Rails Group","group_lon":174.75999450683594,"join_mode":"open","urlname":"aucklandrails","who":"Rails Developers"}}],"meta":{"lon":"","count":20,"signed_url":"http:\/\/api.meetup.com\/2\/events?status=upcoming&order=time&group_urlname=aucklandrails&desc=false&offset=0&format=json&page=20&fields=&sig_id=41374202&sig=5204036c57b66d70e5e8b480e31686d44650ee5e","link":"https:\/\/api.meetup.com\/2\/events","next":"https:\/\/api.meetup.com\/2\/events?key=3a2d27d535f69721d312337875606a&status=upcoming&order=time&group_urlname=aucklandrails&desc=false&offset=1&format=json&page=20&fields=&sign=true","total_count":23,"url":"https:\/\/api.meetup.com\/2\/events?key=3a2d27d535f69721d312337875606a&status=upcoming&order=time&group_urlname=aucklandrails&desc=false&offset=0&format=json&page=20&fields=&sign=true","id":"","title":"Meetup Events v2","updated":1342001038000,"description":"Access Meetup events using a group, member, or event id. Events in private groups are available only to authenticated members of those groups. To search events by topic or location, see [Open Events](\/meetup_api\/docs\/2\/open_events).","method":"Events","lat":""}}